…
cities_logistic
```

    ## # A tibble: 47 × 5
    ##    city_state      term              OR CI_lower CI_upper
    ##    <chr>           <chr>          <dbl>    <dbl>    <dbl>
    ##  1 Albuquerque, NM victim_sexMale 1.77     0.831    3.76 
    ##  2 Atlanta, GA     victim_sexMale 1.00     0.684    1.46 
    ##  3 Baltimore, MD   victim_sexMale 0.426    0.325    0.558
    ##  4 Baton Rouge, LA victim_sexMale 0.381    0.209    0.695
    ##  5 Birmingham, AL  victim_sexMale 0.870    0.574    1.32 
    ##  6 Boston, MA      victim_sexMale 0.674    0.356    1.28 
    ##  7 Buffalo, NY     victim_sexMale 0.521    0.290    0.935
    ##  8 Charlotte, NC   victim_sexMale 0.884    0.557    1.40 
    ##  9 Chicago, IL     victim_sexMale 0.410    0.336    0.501
    ## 10 Cincinnati, OH  victim_sexMale 0.400    0.236    0.677
    ## # … with 37 more rows
…
sum(is.na(birthweight_raw))
```

    ## [1] 0

``` r
birthweight_raw
```

    ## # A tibble: 4,342 × 20
    ##      bwt babysex bhead blength delwt fincome frace gaweeks malform menarche
    ##    <dbl> <fct>   <dbl>   <dbl> <dbl>   <dbl> <fct>   <dbl> <fct>      <dbl>
    ##  1  3629 2          34      51   177      35 1        39.9 0             13
    ##  2  3062 1          34      48   156      65 2        25.9 0             14
    ##  3  3345 2          36      50   148      85 1        39.9 0             12
    ##  4  3062 1          34      52   157      55 1        40   0             14
    ##  5  3374 2          34      52   156       5 1        41.6 0             13
    ##  6  3374 1          33      52   129      55 1        40.7 0             12
    ##  7  2523 2          33      46   126      96 2        40.3 0             14
    ##  8  2778 2          33      49   140       5 1        37.4 0             12
    ##  9  3515 1          36      52   146      85 1        40.3 0             11
    ## 10  3459 1          33      50   169      75 2        40.7 0             12
    ## # … with 4,332 more rows, and 10 more variables: mheight <dbl>, momage <dbl>,
    ## #   mrace <fct>, parity <dbl>, pnumlbw <dbl>, pnumsga <dbl>, ppbmi <dbl>,
    ## #   ppwt <dbl>, smoken <dbl>, wtgain <dbl>
…
